<svg width="44" height="44" viewBox="0 0 44 44" fill="none" xmlns="http://www.w3.org/2000/svg">
<path d="M0 43.9996C0.17571 43.4802 0.33704 43.0013 0.499268 42.5225C1.60027 39.2769 2.69991 36.031 3.80675 32.7872C3.87146 32.5979 3.85349 32.454 3.75238 32.285C2.44197 30.093 1.56926 27.7332 1.12032 25.2224C0.682169 22.7714 0.670035 20.3132 1.09291 17.855C1.74497 14.0649 3.30973 10.6957 5.77192 7.74968C7.71821 5.42097 10.0591 3.58642 12.7837 2.23883C14.8028 1.24017 16.9257 0.577848 19.1484 0.242414C21.3297 -0.0871754 23.5137 -0.0777329 25.6968 0.252756C27.6211 0.543676 29.4739 1.0819 31.2472 1.87822C33.7467 3.00098 35.9604 4.53921 37.8824 6.49876C39.4269 8.07342 40.7023 9.84187 41.699 11.8046C42.7627 13.8981 43.4633 16.1131 43.7873 18.4436C44.2093 21.4805 44.0066 24.4737 43.1501 27.4176C42.2841 30.3942 40.8304 33.0588 38.8018 35.4001C36.6627 37.8691 34.0967 39.7693 31.0984 41.0787C28.781 42.0908 26.3637 42.678 23.8391 42.8435C21.5049 42.9964 19.2072 42.7851 16.9441 42.2055C15.2652 41.7756 13.664 41.1398 12.1312 40.3305C12.0269 40.2756 11.8683 40.2576 11.7568 40.2927C9.64698 40.9555 7.5407 41.6304 5.43263 42.2999C3.67508 42.8584 1.91618 43.4137 0.157735 43.9699C0.123581 43.9807 0.087181 43.9838 0.000449386 44L0 43.9996ZM5.41421 38.7185C5.61553 38.6587 5.77147 38.6146 5.92561 38.5656C8.03233 37.8961 10.1386 37.2243 12.2476 36.5606C12.333 36.5337 12.461 36.5476 12.5356 36.5948C14.0128 37.5377 15.5883 38.2576 17.2713 38.7486C19.9357 39.5265 22.6365 39.6875 25.3733 39.2414C27.884 38.8322 30.2069 37.9312 32.3361 36.5382C34.8836 34.8713 36.9054 32.7121 38.3673 30.0376C39.9114 27.2134 40.6371 24.1896 40.5544 20.9706C40.483 18.1945 39.7977 15.5798 38.5079 13.1229C37.3027 10.827 35.675 8.87783 33.6339 7.28474C30.8994 5.15028 27.7995 3.88993 24.3491 3.51448C22.5304 3.31663 20.7199 3.39622 18.9219 3.7411C17.3571 4.04101 15.857 4.54011 14.4267 5.23706C12.5855 6.13365 10.9372 7.30767 9.49059 8.76093C7.61755 10.6422 6.20872 12.8235 5.30186 15.3194C4.29748 18.0839 3.9946 20.9283 4.38556 23.8456C4.76799 26.6986 5.789 29.3034 7.43824 31.6586C7.62609 31.927 7.65485 32.1433 7.54789 32.4513C6.83067 34.5188 6.13502 36.5944 5.41511 38.7189L5.41421 38.7185Z" fill="white"/>
<path d="M15.6366 12.0209C15.9572 12.0209 16.2778 12.0272 16.5985 12.0195C17.01 12.0095 17.2553 12.2481 17.4138 12.5731C17.6513 13.0607 17.8603 13.5622 18.0748 14.0606C18.4946 15.037 18.9085 16.0157 19.327 16.993C19.434 17.2429 19.4285 17.4828 19.321 17.735C18.9967 18.4964 18.4193 19.0708 17.8672 19.6625C17.5415 20.011 17.4951 20.2731 17.7289 20.6778C17.8006 20.8014 17.8708 20.9263 17.9489 21.0459C18.8823 22.4691 19.9677 23.7615 21.32 24.8221C22.3232 25.6088 23.4151 26.2485 24.5938 26.7441C24.8046 26.8329 25.0122 26.9288 25.224 27.0153C25.6925 27.2068 25.9562 27.1624 26.2818 26.7817C26.862 26.1036 27.427 25.4133 27.9915 24.7225C28.3029 24.3409 28.5698 24.2476 29.0305 24.4292C29.4839 24.608 29.9322 24.8003 30.3732 25.0072C31.42 25.4988 32.4586 26.0081 33.5064 26.4983C33.8509 26.6595 34.0126 26.898 33.9992 27.2774C33.9698 28.1221 33.8417 28.9464 33.4076 29.6865C33.064 30.2723 32.5202 30.6715 31.951 31.0323C30.873 31.7154 29.6851 32.0703 28.4114 31.9884C27.7504 31.9458 27.0903 31.7507 26.4509 31.5574C24.9833 31.1138 23.5327 30.6177 22.1583 29.9323C20.6687 29.1895 19.3472 28.2117 18.1253 27.099C16.6403 25.7464 15.3826 24.2046 14.2273 22.5736C13.5117 21.5633 12.8645 20.5235 12.4405 19.3583C11.8921 17.8518 11.8296 16.343 12.4015 14.8284C12.7469 13.913 13.3413 13.1639 14.051 12.5025C14.4892 12.0942 15.033 11.9376 15.6366 12.0222V12.0209Z" fill="white"/>
</svg>
