<?xml version="1.0" encoding="UTF-8"?>
<svg id="Calque_2" data-name="Calque 2" xmlns="http://www.w3.org/2000/svg" viewBox="0 0 698.67 694.34">
  <defs>
    <style>
      .cls-1 {
        fill: #9c264a;
      }

      .cls-1, .cls-2, .cls-3 {
        stroke-width: 0px;
      }

      .cls-2 {
        fill: #6e1631;
      }

      .cls-3 {
        fill: #ff9c27;
      }
    </style>
  </defs>
  <g id="couche_1">
    <g>
      <polygon class="cls-2" points="358.81 149.5 369.95 150.16 360.38 247.45 358.81 149.5"/>
      <polygon class="cls-2" points="206.35 209.41 214.32 201.59 280.01 273.99 206.35 209.41"/>
      <polygon class="cls-2" points="510.12 234.27 516 243.75 430.96 291.98 510.12 234.27"/>
      <polygon class="cls-2" points="531.65 419.67 527.07 429.85 439.57 386.23 531.65 419.67"/>
      <polygon class="cls-2" points="413.96 526.04 403.36 529.53 376.48 435.53 413.96 526.04"/>
      <polygon class="cls-2" points="252.34 511.54 242.91 505.58 298.34 425.05 252.34 511.54"/>
      <polygon class="cls-2" points="156.58 359.65 156.11 348.5 253.87 348.16 156.58 359.65"/>
    </g>
    <g>
      <polygon class="cls-3" points="318.02 46.97 333.54 45.95 337.13 182.18 318.02 46.97"/>
      <polygon class="cls-3" points="113.51 160.67 123.79 148.99 222.49 242.96 113.51 160.67"/>
      <polygon class="cls-3" points="518.35 97.33 530.87 106.57 445.69 212.96 518.35 97.33"/>
      <polygon class="cls-3" points="636.46 258.78 640.48 273.81 507.56 303.88 636.46 258.78"/>
      <polygon class="cls-3" points="607.7 500.2 599.06 513.14 488.76 433.11 607.7 500.2"/>
      <polygon class="cls-3" points="423.04 633.83 407.91 637.45 381.37 503.78 423.04 633.83"/>
      <polygon class="cls-3" points="174.97 588.03 163 578.1 254.05 476.7 174.97 588.03"/>
      <polygon class="cls-3" points="52.57 386.03 51.71 370.5 187.97 368.31 52.57 386.03"/>
    </g>
    <g>
      <polygon class="cls-1" points="298.24 2 317.24 0 328.24 167 298.24 2"/>
      <polygon class="cls-1" points="138.57 67.52 154.22 56.55 244.87 197.23 138.57 67.52"/>
      <polygon class="cls-1" points="33.12 207.74 42 190.82 187.02 274.37 33.12 207.74"/>
      <polygon class="cls-1" points="483 26.16 500.25 34.38 422.43 182.54 483 26.16"/>
      <polygon class="cls-1" points="634.19 145.68 644.56 161.72 500.59 247.06 634.19 145.68"/>
      <polygon class="cls-1" points="698.19 326.4 698.67 345.5 531.32 343.09 698.19 326.4"/>
      <polygon class="cls-1" points="654.72 507.02 644.99 523.46 504.37 432.72 654.72 507.02"/>
      <polygon class="cls-1" points="522.18 646.93 505.27 655.83 433.14 504.81 522.18 646.93"/>
      <polygon class="cls-1" points="329.56 694.34 310.66 691.52 341.81 527.08 329.56 694.34"/>
      <polygon class="cls-1" points="168.16 652.43 152.01 642.22 246.92 504.37 168.16 652.43"/>
      <polygon class="cls-1" points="54.27 520.76 45.88 503.6 198.99 436.01 54.27 520.76"/>
      <polygon class="cls-1" points=".81 373.59 0 354.5 167.36 353.92 .81 373.59"/>
    </g>
  </g>
</svg>