<svg width="764" height="266" viewBox="0 0 764 266" fill="none" xmlns="http://www.w3.org/2000/svg">
<path d="M398.2 15.7739C406.092 2.66235 414.751 -22.8438 433.367 -31.9954L708.448 -32C711.381 -16.4825 724.828 -1.29048 731.335 13.6138C738.068 29.0381 749.743 42.5628 757.331 57.5511C764.035 70.7931 772.579 97.2337 744.407 100.292C721.988 102.726 693.822 87.782 673.635 81.8472C643.504 72.9892 625.22 50.0291 606.98 33.1641C597.784 24.6608 586.953 13.8552 582.491 3.85811C578.987 -3.9948 570.284 2.07837 570.987 7.85246C573.479 28.3089 588.194 46.8094 603.332 64.3312C615.606 78.5374 624.014 94.0994 634.545 108.921C639.68 116.146 660.089 138.623 651.914 146.526C637.069 160.877 601.472 147.362 584.886 138.185C552.828 120.448 513.478 93.9997 507.658 64.3773C506.891 60.4748 502.131 10.5927 488.44 19.8234C468.6 33.2001 471.351 61.0264 474.938 77.6672C479.231 97.5786 499.081 116.772 494.221 137.298C488.369 162.014 461.372 158.559 433.351 153.01C395.212 145.457 382.397 110.165 382.039 87.0806C381.647 61.7619 383.984 39.3919 398.2 15.7739Z" fill="#B4C5BE"/>
<path d="M-20.7601 115.867C-23.0174 74.1025 -29.6432 23.4973 -19.6113 -18L376.353 -18C424.762 17.6487 426.917 14.3822 468.271 58.0138C482.034 72.5344 496.471 92.5403 502.785 111.9C515.088 149.621 473.447 166.987 444.151 164.295C421.403 162.204 398.664 146.866 376.353 147.511C337.619 148.629 327.933 188.922 334.319 219.303C351.055 298.922 241.155 256.592 203.226 238.165C167.76 220.934 138.647 198.045 122.338 160.938C120.446 156.634 124.178 143.188 121.262 146.874C112.263 158.248 107.466 173.893 98.657 185.837C77.5489 214.456 40.814 215.162 14.9235 192.437C-11.9446 168.853 -18.9548 149.269 -20.7601 115.867Z" fill="#809C94"/>
</svg>
